…
To review the actual text you index the list twice. To access the document's metadata, like timestamp, change `[1]`to `[2]`. Another way to review the plain text is with the `content()` function which doesn't need the second set of brackets.

``` r
ch_1_twitter_data <- readRDS("data/ch_1_twitter_data.rds")

tidy_twitter <- ch_1_twitter_data
tidy_twitter <- tidy_twitter %>% 
  unnest_tokens(word, tweet_text) %>% 
  anti_join(stop_words)

tidy_twitter
## # A tibble: 63,633 x 6
##    tweet_id date                complaint_label usr_followers_c~
##       <dbl> <dttm>              <chr>                      <dbl>
##  1  4.77e17 2014-06-12 00:07:25 Non-Complaint                152
##  2  4.77e17 2014-06-12 00:07:25 Non-Complaint                152
##  3  4.77e17 2014-06-12 00:07:25 Non-Complaint                152
##  4  4.77e17 2014-06-12 00:07:25 Non-Complaint                152
##  5  4.77e17 2014-06-12 00:07:25 Non-Complaint                152
##  6  4.77e17 2014-06-12 00:07:25 Non-Complaint                152
##  7  4.77e17 2014-06-12 00:07:25 Non-Complaint                152
##  8  4.77e17 2014-06-12 00:07:25 Non-Complaint                152
##  9  4.77e17 2014-06-12 00:07:25 Non-Complaint                152
## 10  4.77e17 2014-06-12 00:07:25 Non-Complaint                152
## # ... with 63,623 more rows, and 2 more variables: usr_verified <lgl>,
## #   word <chr>

data <- read_csv("data/Roomba Reviews.csv")
data
## # A tibble: 1,833 x 5
##    Date   Product       Stars Title              Review                    
##    <chr>  <chr>         <dbl> <chr>              <chr>                     
##  1 2/28/~ iRobot Roomb~     5 Five Stars         You would not believe how~
##  2 1/12/~ iRobot Roomb~     4 Four Stars         You just walk away and it~
##  3 12/26~ iRobot Roomb~     5 Awesome love it.   You have to Roomba proof ~
##  4 8/4/13 iRobot Roomb~     3 Love-hate this va~ Yes, it's a fascinating, ~
##  5 12/22~ iRobot Roomb~     5 This vacuum is fa~ Years ago I bought one of~
##  6 12/27~ iRobot Roomb~     5 Wow!               "Wow.Wow.  I never knew m~
##  7 8/17/~ iRobot Roomb~     1 Terrible Product ~ Wow.. I don't know what t~
##  8 12/28~ iRobot Roomb~     5 Super-impressed b~ Wow, wow, WOW!  I wanted ~
##  9 1/19/~ iRobot Roomb~     5 LOVE THIS          Wow, the Roomba is the be~
## 10 7/2/15 iRobot Roomb~     5 Stress is bad; Ro~ Wow, it changes your life~
## # ... with 1,823 more rows
```

``` r
word_counts <- tidy_twitter %>%
  # Count words by whether or not its a complaint
  count(word, complaint_label) %>%
  # Group by whether or not its a complaint
  group_by(complaint_label) %>%
  # Keep the top 20 words
  top_n(20, n) %>%
  # Ungroup before reordering word as a factor by the count
  ungroup() %>%
  mutate(word2 = fct_reorder(word, n))

word_counts
## # A tibble: 40 x 4
##    word            complaint_label     n word2          
##    <chr>           <chr>           <int> <fct>          
##  1 2               Complaint         129 2              
##  2 americanair     Complaint         294 americanair    
##  3 americanair     Non-Complaint     536 americanair    
##  4 amp             Complaint          95 amp            
##  5 amp             Non-Complaint     171 amp            
##  6 bag             Complaint          90 bag            
##  7 british_airways Complaint         121 british_airways
##  8 british_airways Non-Complaint     260 british_airways
##  9 customer        Complaint         116 customer       
## 10 de              Non-Complaint     475 de             
## # ... with 30 more rows
```
…
<img src="Intro_to_text_analytics_files/figure-markdown_github/unnamed-chunk-16-1.png" style="display: block; margin: auto;" />

Sentiment analysis
------------------

### Sentiment dictionaries

Four sentiment disctionaries - `bing`, `Affin`,`Loughran` and `nrc`

``` r
tidytext::get_sentiments("bing")
## # A tibble: 6,788 x 2
##    word        sentiment
##    <chr>       <chr>    
##  1 2-faced     negative 
##  2 2-faces     negative 
##  3 a+          positive 
##  4 abnormal    negative 
##  5 abolish     negative 
##  6 abominable  negative 
##  7 abominably  negative 
##  8 abominate   negative 
##  9 abomination negative 
## 10 abort       negative 
## # ... with 6,778 more rows
tidytext::get_sentiments("afinn")
## # A tibble: 2,476 x 2
##    word       score
##    <chr>      <int>
##  1 abandon       -2
##  2 abandoned     -2
##  3 abandons      -2
##  4 abducted      -2
##  5 abduction     -2
##  6 abductions    -2
##  7 abhor         -3
##  8 abhorred      -3
##  9 abhorrent     -3
## 10 abhors        -3
## # ... with 2,466 more rows
tidytext::get_sentiments("loughran")
## # A tibble: 4,149 x 2
##    word         sentiment
##    <chr>        <chr>    
##  1 abandon      negative 
##  2 abandoned    negative 
##  3 abandoning   negative 
##  4 abandonment  negative 
##  5 abandonments negative 
##  6 abandons     negative 
##  7 abdicated    negative 
##  8 abdicates    negative 
##  9 abdicating   negative 
## 10 abdication   negative 
## # ... with 4,139 more rows
```
…
lda_topics <- lda_out %>% 
  broom::tidy(matrix= "beta")

lda_topics %>% 
  arrange(desc(beta))
## # A tibble: 35,994 x 3
##    topic term           beta
##    <int> <chr>         <dbl>
##  1     1 t.co         0.0428
##  2     1 http         0.0415
##  3     2 flight       0.0289
##  4     1 klm          0.0278
##  5     2 united       0.0263
##  6     2 americanair  0.0241
##  7     1 delta        0.0147
##  8     1 de           0.0145
##  9     1 southwestair 0.0145
## 10     2 usairways    0.0137
## # ... with 35,984 more rows
```
…
# Tidy the matrix of word probabilities
lda_topics <- lda_out %>% 
  broom::tidy(matrix = "beta")

# Arrange the topics by word probabilities in descending order
lda_topics %>% 
  arrange(desc(beta))
## # A tibble: 35,994 x 3
##    topic term           beta
##    <int> <chr>         <dbl>
##  1     1 t.co         0.0423
##  2     1 http         0.0410
##  3     2 flight       0.0293
##  4     1 klm          0.0274
##  5     2 united       0.0267
##  6     2 americanair  0.0244
##  7     1 delta        0.0179
##  8     1 de           0.0143
##  9     1 southwestair 0.0143
## 10     2 usairways    0.0139
## # ... with 35,984 more rows
```
…
# Tidy the matrix of word probabilities
lda_topics2 <- lda_out2 %>% 
  tidy(matrix = "beta")

# Arrange the topics by word probabilities in descending order
lda_topics2 %>% 
  arrange(desc(beta))
## # A tibble: 53,991 x 3
##    topic term           beta
##    <int> <chr>         <dbl>
##  1     3 t.co         0.0608
##  2     3 http         0.0589
##  3     2 flight       0.0429
##  4     3 klm          0.0394
##  5     2 united       0.0391
##  6     2 americanair  0.0357
##  7     2 delta        0.0256
##  8     1 southwestair 0.0209
##  9     3 de           0.0205
## 10     2 usairways    0.0203
## # ... with 53,981 more rows
…
