…
## Mapping your data

In combination with `mutate()`, you can use `map()` to append the
results of your calculation to a dataframe. Since the `map()` function
always returns a vector of lists you must use `unnest()` to extract this
information into a numeric vector.

Here you will explore this functionality by calculating the mean
population of each country in the gapminder dataset.

``` r
# Calculate the mean population for each country
gap_nested
## # A tibble: 142 x 2
##    country     data             
##    <fct>       <list>           
##  1 Afghanistan <tibble [12 x 5]>
##  2 Albania     <tibble [12 x 5]>
##  3 Algeria     <tibble [12 x 5]>
##  4 Angola      <tibble [12 x 5]>
##  5 Argentina   <tibble [12 x 5]>
##  6 Australia   <tibble [12 x 5]>
##  7 Austria     <tibble [12 x 5]>
##  8 Bahrain     <tibble [12 x 5]>
##  9 Bangladesh  <tibble [12 x 5]>
## 10 Belgium     <tibble [12 x 5]>
## # ... with 132 more rows
…
## Best and worst fitting models

``` r
# Plot a histogram of rsquared for the 77 models    
model_perf
## # A tibble: 142 x 14
##    country data  model r.squared adj.r.squared sigma statistic  p.value
##    <fct>   <lis> <lis>     <dbl>         <dbl> <dbl>     <dbl>    <dbl>
##  1 Afghan~ <tib~ <S3:~     0.948         0.942 1.22      181.  9.84e- 8
##  2 Albania <tib~ <S3:~     0.911         0.902 1.98      102.  1.46e- 6
##  3 Algeria <tib~ <S3:~     0.985         0.984 1.32      662.  1.81e-10
##  4 Angola  <tib~ <S3:~     0.888         0.877 1.41       79.1 4.59e- 6
##  5 Argent~ <tib~ <S3:~     0.996         0.995 0.292    2246.  4.22e-13
##  6 Austra~ <tib~ <S3:~     0.980         0.978 0.621     481.  8.67e-10
##  7 Austria <tib~ <S3:~     0.992         0.991 0.407    1261.  7.44e-12
##  8 Bahrain <tib~ <S3:~     0.967         0.963 1.64      291.  1.02e- 8
##  9 Bangla~ <tib~ <S3:~     0.989         0.988 0.977     930.  3.37e-11
## 10 Belgium <tib~ <S3:~     0.995         0.994 0.293    1822.  1.20e-12
## # ... with 132 more rows, and 6 more variables: df <int>, logLik <dbl>,
## #   AIC <dbl>, BIC <dbl>, deviance <dbl>, df.residual <int>
…
